{
	"ballinterval": 1000,
	"overinterval": 1000,
	
	"liveinterval": 1000,
	"staticpath": "/var/data/ongogames/cricket/",
	"rootstaticpath": "/cricket/static/",
	"logpath": "/var/log/ongogames/cricket/app.log",
	"live_url": "http://static.espncricinfo.com/rss/livescores.xml",
	"root_url": "http://www.espncricinfo.com/ci/engine/match/",
	"root": "http://www.espncricinfo.com",
	"ball_time": 3000,
	"over_time": 10,
	"connect_timeout": 50000,
	"request_timeout": 50000,
	"day_time": 86400,
	"break_time": 900,
	"rain_break_time": 450,
	"varnish_host": "localhost:6081",
	"varnish_live_request": 60,
	"varnish_ball_request": 30,
	"port": 8080,
	"log_file_size": 3000,
	"log_to_stderr": "true",
	"rabbitmq": 
	{
		"username": "guest",
		"password": "guest",
		"host": "localhost",
		"port": 5672,
		"vhost": "/"
	}
}